is_proj.sim/sim_1/behav/xsim/waveform.vcd
$date
   Mon Sep 22 22:14:04 2025
$end

$version
  2025.1.0
  $dumpfile ("waveform.vcd") 
$end

$timescale
  1ps
$end

$scope module tb_StreamMax $end
$var reg 1 ! clk $end
$var reg 1 " rst_n $end
$var reg 1 # in_valid $end
$var wire 1 $ this_ready $end
$var wire 1 % out_valid $end
$var reg 1 & nest_ready $end
$var reg 1 ' inner_done $end
$var reg 1 ( outer_done $end
$var reg 1 ) indone_valid $end
$var reg 1 * outdone_valid $end
$var reg 6 + in_data [5:0] $end
$var reg 6 , norm_data [5:0] $end
$var wire 6 - max_index [5:0] $end
$var wire 6 . max_value [5:0] $end
$var wire 1 / out_last $end
$var integer 32 0 i [31:0] $end
$var integer 32 1 j [31:0] $end
$scope module dut $end
$var wire 1 2 clk $end
$var wire 1 3 rst_n $end
$var wire 1 4 in_valid $end
$var wire 1 $ this_ready $end
$var wire 1 % out_valid $end
$var wire 1 5 nest_ready $end
$var wire 1 6 inner_done $end
$var wire 1 7 outer_done $end
$var wire 1 8 indone_valid $end
$var wire 1 9 outdone_valid $end
$var wire 6 : in_data [5:0] $end
$var wire 6 ; norm_data [5:0] $end
$var reg 6 < max_index [5:0] $end
$var reg 6 = max_value [5:0] $end
$var wire 1 / out_last $end
$var reg 6 > cur_max_value [5:0] $end
$var reg 6 ? cur_max_in_data [5:0] $end
$var reg 6 @ cur_max_index [5:0] $end
$var reg 6 A cur_index [5:0] $end
$var reg 2 B line_cnt [1:0] $end
$var reg 2 C out_cnt [1:0] $end
$var reg 1 D out_valid_r $end
$var reg 1 E out_last_r $end
$scope begin Block78_2 $end
$var integer 32 F i [31:0] $end
$upscope $end
$upscope $end
$upscope $end
$enddefinitions $end

#0
$dumpvars
0!
0"
0#
1$
0%
1&
0'
0(
0)
0*
b0 +
b0 ,
b0 -
b0 .
0/
bx 0
bx 1
02
03
04
15
06
07
08
09
b0 :
b0 ;
b0 <
b0 =
b0 >
b0 ?
b0 @
b0 A
b0 B
b0 C
0D
0E
b11 F
$end

#5000
1!
12
b11 F

#10000
0!
02

#15000
1!
12
b11 F

#20000
0!
1"
02
13

#25000
1!
12

#30000
0!
1#
b1 +
b1 ,
b0 0
b1 1
02
14
b1 :
b1 ;

#35000
1!
12
b1 >
b1 ?
b1 A

#40000
0!
b10 +
b10 ,
b10 1
02
b10 :
b10 ;

#45000
1!
12
b10 >
b10 ?
b1 @
b10 A

#50000
0!
b11 +
b11 ,
b11 1
02
b11 :
b11 ;

#55000
1!
12
b11 >
b11 ?
b10 @
b11 A

#60000
0!
1'
1)
b100 +
b100 ,
b100 1
02
16
18
b100 :
b100 ;

#65000
1!
12
b100 >
b100 ?
b11 @
b100 A
b1 B

#70000
0!
0'
0)
b101 +
b101 ,
b101 1
02
06
08
b101 :
b101 ;

#75000
1!
12
b101 >
b101 ?
b100 @
b101 A

#80000
0!
0#
b1 0
b0 1
02
04

#85000
1!
12

#90000
0!
1#
b110 +
b10 ,
b1 1
02
14
b110 :
b10 ;

#95000
1!
12
b110 A

#100000
0!
b111 +
b100 ,
b10 1
02
b111 :
b100 ;

#105000
1!
12
b111 A

#110000
0!
b1000 +
b110 ,
b11 1
02
b1000 :
b110 ;

#115000
1!
12
b110 >
b1000 ?
b111 @
b1000 A

#120000
0!
1'
1)
b1001 +
b1000 ,
b100 1
02
16
18
b1001 :
b1000 ;

#125000
1!
12
b1000 >
b1001 ?
b1000 @
b1001 A
b10 B

#130000
0!
0'
0)
b1010 +
b1010 ,
b101 1
02
06
08
b1010 :
b1010 ;

#135000
1!
12
b1010 >
b1010 ?
b1001 @
b1010 A

#140000
0!
0#
b10 0
b0 1
02
04

#145000
1!
12

#150000
0!
1#
b1011 +
b11 ,
b1 1
02
14
b1011 :
b11 ;

#155000
1!
12
b1011 A

#160000
0!
b1100 +
b110 ,
b10 1
02
b1100 :
b110 ;

#165000
1!
12
b1100 A

#170000
0!
b1101 +
b1001 ,
b11 1
02
b1101 :
b1001 ;

#175000
1!
12
b1101 A

#180000
0!
1'
1)
b1110 +
b1100 ,
b100 1
02
16
18
b1110 :
b1100 ;

#185000
1!
12
b1100 >
b1110 ?
b1101 @
b1110 A
b11 B

#190000
0!
0'
0)
b1111 +
b1111 ,
b101 1
02
06
08
b1111 :
b1111 ;

#195000
1!
12
b1111 >
b1111 ?
b1110 @
b1111 A

#200000
0!
0#
b11 0
02
04

#205000
1!
12

#210000
0!
1(
1*
02
17
19

#215000
1!
1%
12
b0 B
1D

#220000
0!
0(
0*
02
07
09

#225000
1!
b10 -
b11 .
12
b10 <
b11 =
b1 C

#230000
0!
02

#235000
1!
b111 -
b110 .
12
b111 <
b110 =
b10 C

#240000
0!
02

#245000
1!
0%
b1001 -
b1010 .
1/
12
b1001 <
b1010 =
0D
1E

#250000
0!
02

#255000
1!
12

#260000
0!
02

#265000
1!
12

#270000
$dumpoff
x$
x%
bx -
bx .
x/
x2
x3
x4
x5
x6
x7
x8
x9
bx :
bx ;
x!
x"
x#
x&
x'
x(
x)
x*
bx +
bx ,
bx 0
bx 1
bx <
bx =
bx >
bx ?
bx @
bx A
bx B
bx C
xD
xE
bx F
$end

